[
  {
    "name": "Siu Mattison",
    "satisfactory": "50"
  },
  {
    "name": "Collin Heston",
    "satisfactory": "50"
  },
  {
    "name": "Dorotha Salas",
    "satisfactory": "50"
  },
  {
    "name": "Tresa Jessie",
    "satisfactory": "50"
  },
  {
    "name": "Kristel Wade",
    "satisfactory": "50"
  },
  {
    "name": "Jeffrey Tuner",
    "satisfactory": "50"
  },
  {
    "name": "Clarence Howey",
    "satisfactory": "50"
  },
  {
    "name": "Philip Radney",
    "satisfactory": "50"
  },
  {
    "name": "Alfred Seltzer",
    "satisfactory": "50"
  },
  {
    "name": "William Coilung",
    "satisfactory": "50"
  }

]